{
    "arch": "x86_64",
    "data-layout": "e-m:e-i64:64-f80:128-n8:16:32:64-S128",
    "disable-redzone": true,
    "features": "-mmx,-sse,+soft-float",
    "linker-flavor": "gcc",
    "llvm-target": "x86_64-unknown-none",
    "os": "none",
    "panic-strategy": "abort",
    "target-c-int-width": "32",
    "target-endian": "little",
    "target-pointer-width": "64"
}
